MA [46]15 Final Project by Team 9 - Analysis
…
log_inctot_p_values <- data_twenty_filtered_final %>%
  group_by(RACE, YEAR) %>%
  do({
    model = lm(log_RENTGRS ~ log_INCTOT + KITCHEN + ROOMS + NFAMS + AGE + MARST + EMPSTAT + REGION_CLASSIFIED, data = .)
    tidy(model)
  }) %>%
  ungroup() %>%
  filter(term == "log_INCTOT") %>%  # Filter to only include rows where the term is 'log_INCTOT'
  select(RACE, YEAR, term, estimate, p.value)  # Select only the relevant columns

# Print or view the results
print(log_inctot_p_values)

# A tibble: 149 × 5
   RACE                              YEAR term       estimate p.value
   <chr>                            <dbl> <chr>         <dbl>   <dbl>
 1 American Indian or Alaska Native  2001 log_INCTOT  0.00445  0.983 
 2 American Indian or Alaska Native  2005 log_INCTOT -0.173    0.0485
 3 American Indian or Alaska Native  2007 log_INCTOT  0.124    0.265 
 4 American Indian or Alaska Native  2008 log_INCTOT  0.166    0.0480
 5 American Indian or Alaska Native  2009 log_INCTOT -0.0291   0.779 
 6 American Indian or Alaska Native  2011 log_INCTOT -0.0246   0.835 
 7 American Indian or Alaska Native  2012 log_INCTOT  0.0830   0.154 
 8 American Indian or Alaska Native  2013 log_INCTOT  0.145    0.0679
 9 American Indian or Alaska Native  2014 log_INCTOT -0.0806   0.455 
10 American Indian or Alaska Native  2015 log_INCTOT  0.229    0.0149
# ℹ 139 more rows
…
