MA [46]15 Final Project by Team 9 - Class blog 6
…
`summarise()` has grouped output by 'RACE'. You can override using the
`.groups` argument.

# Identify RACE-YEAR groups with any categorical variable having only one level
race_year_with_single_levels <- race_year_levels %>%
  filter(if_any(everything(), ~.x == 1)) 

# Display the RACE-YEAR groups with issues, if any
print(race_year_with_single_levels)

# A tibble: 58 × 6
   RACE                             YEAR KITCHEN MARST EMPSTAT REGION_CLASSIFIED
   <fct>                           <dbl>   <int> <int>   <int>             <int>
 1 American Indian or Alaska Nati…  2000       1     2       3                 4
 2 American Indian or Alaska Nati…  2002       1     4       3                 4
 3 American Indian or Alaska Nati…  2003       1     4       3                 4
 4 American Indian or Alaska Nati…  2004       1     4       3                 3
 5 American Indian or Alaska Nati…  2006       1     6       3                 4
 6 American Indian or Alaska Nati…  2010       1     5       3                 4
 7 American Indian or Alaska Nati…  2019       1     5       3                 4
 8 Black/African American           2001       1     6       3                 4
 9 Chinese                          2000       1     3       2                 3
10 Chinese                          2002       1     4       3                 3
# ℹ 48 more rows
…
