MA [46]15 Final Project by Team 9 - Class Blog 2
…
# Clean the data
library(tidyverse)
library(here)
data_path <- here("dataset-ignore", "twok22_data.csv")
library(readr)
rent_data <- read_csv(data_path,show_col_types = FALSE)

print(rent_data)

# A tibble: 6,001 × 16
    YEAR REGION RENTGRS KITCHEN      ROOMS NFAMS   AGE MARST RACE  RACED EMPSTAT
   <dbl>  <dbl>   <dbl> <chr>        <dbl> <dbl> <dbl> <chr> <chr> <dbl> <chr>  
 1  2022     31    1200 Yes (shared…     4     1    16 Neve… Othe…   700 Not in…
 2  2022     31     253 Yes (shared…     3     1    63 Wido… White   100 Employ…
 3  2022     42    3000 Yes (shared…     7     1    76 Marr… White   100 Employ…
 4  2022     42    2242 Yes (shared…     5     4    24 Neve… White   100 Not in…
 5  2022     41    1403 Yes (shared…     3     1    54 Marr… White   100 Employ…
 6  2022     33    1450 Yes (shared…     3     1    33 Neve… Othe…   700 Not in…
 7  2022     22    2089 Yes (shared…     6     1    17 Neve… White   100 Employ…
 8  2022     41    1103 Yes (shared…     6     1    39 Neve… Othe…   700 Employ…
 9  2022     41     968 Yes (shared…     4     1    40 Divo… White   100 Employ…
10  2022     42    2637 Yes (shared…     7     1    23 Marr… Two …   826 Not in…
# ℹ 5,991 more rows
# ℹ 5 more variables: EMPSTATD <dbl>, INCTOT <dbl>, FTOTINC <dbl>,
#   POVERTY <dbl>, REGION_CLASSIFIED <chr>
…
